{
	"info": {
		"_postman_id": "6fc84357-02b9-4f75-a34c-810d428fb419",
		"name": "IIS_Anfragen",
		"schema": "https://schema.getpostman.com/json/collection/v2.1.0/collection.json"
	},
	"item": [
		{
			"name": "Message Start Camunda (NeuerHinweis)",
			"request": {
				"method": "POST",
				"header": [],
				"body": {
					"mode": "raw",
					"raw": "{\n    \"messageName\": \"NeuerHinweis\",\n    \"processVariables\": {\n    \"company\": {\"value\": \"Audi\"},\n    \"complaint\":{\"value\": \"HierID\"},\n    \"username\":{\"value\": \"fag8777\"},\n    \"email\" : {\"value\": \"fag8777@thi.de\"}\n}\n}",
					"options": {
						"raw": {
							"language": "json"
						}
					}
				},
				"url": {
					"raw": "http://localhost:8080/engine-rest/message",
					"protocol": "http",
					"host": [
						"localhost"
					],
					"port": "8080",
					"path": [
						"engine-rest",
						"message"
					]
				}
			},
			"response": []
		},
		{
			"name": "Benutzer Ticket Bearbeitung",
			"request": {
				"method": "POST",
				"header": [],
				"body": {
					"mode": "raw",
					"raw": "{\n    \"messageName\": \"receivedAdaptation\",\n    \"processInstanceId\":\"HierID\",\n    \"processVariables\": {\n    \"complaint\": {\"value\": \"Am 20.1.2022 wurde ich von XY am Arbeitsplatz Sexuell Belästigt\"}\n}\n}",
					"options": {
						"raw": {
							"language": "json"
						}
					}
				},
				"url": {
					"raw": "http://localhost:8080/engine-rest/message",
					"protocol": "http",
					"host": [
						"localhost"
					],
					"port": "8080",
					"path": [
						"engine-rest",
						"message"
					]
				}
			},
			"response": []
		},
		{
			"name": "Benutzer Ticket Bearbeitung Copy",
			"request": {
				"method": "POST",
				"header": [],
				"body": {
					"mode": "raw",
					"raw": "{\n    \"messageName\": \"Bestaetigung\",\n    \"processInstanceId\":\"Hier ID einfügen\"\n}\n",
					"options": {
						"raw": {
							"language": "json"
						}
					}
				},
				"url": {
					"raw": "http://localhost:8080/engine-rest/message",
					"protocol": "http",
					"host": [
						"localhost"
					],
					"port": "8080",
					"path": [
						"engine-rest",
						"message"
					]
				}
			},
			"response": []
		},
		{
			"name": "Präsentations Bestätigung an die AMQ ",
			"request": {
				"method": "POST",
				"header": [],
				"body": {
					"mode": "raw",
					"raw": "{\n    \"messageName\" : \"VorstellungDurchgefuehrt\",\n    \"processInstanceId\":\"HierID\"\n}",
					"options": {
						"raw": {
							"language": "json"
						}
					}
				},
				"url": {
					"raw": "http://admin:admin@localhost:8161/api/message/PresentationConfirmation?type=queue",
					"protocol": "http",
					"auth": {
						"user": "admin",
						"password": "admin"
					},
					"host": [
						"localhost"
					],
					"port": "8161",
					"path": [
						"api",
						"message",
						"PresentationConfirmation"
					],
					"query": [
						{
							"key": "type",
							"value": "queue"
						}
					]
				}
			},
			"response": []
		},
		{
			"name": "Public Reaction (Notlösung)",
			"request": {
				"method": "POST",
				"header": [],
				"body": {
					"mode": "raw",
					"raw": "{\n  \"messageName\": \"ReaktionEmpfangen\",\n  \"processInstanceId\": \"HierID\",\n  \"processVariables\": {\n    \"category\": {\"value\":\"Pharmaindustrie\"},\n    \"comment\": {\"value\": \"Ich wusste, dass das so eine schlimme Firma ist. Die Vorstände sollten hinter Gitter!\"},\n    \"source\": {\"value\":\"instagram\"}\n  }\n}",
					"options": {
						"raw": {
							"language": "json"
						}
					}
				},
				"url": {
					"raw": "http://localhost:8080/engine-rest/message",
					"protocol": "http",
					"host": [
						"localhost"
					],
					"port": "8080",
					"path": [
						"engine-rest",
						"message"
					]
				}
			},
			"response": []
		},
		{
			"name": "Bekommen der aktuellen ProzessIDs",
			"request": {
				"method": "GET",
				"header": [],
				"url": {
					"raw": "http://localhost:8080/engine-rest/process-instance",
					"protocol": "http",
					"host": [
						"localhost"
					],
					"port": "8080",
					"path": [
						"engine-rest",
						"process-instance"
					]
				}
			},
			"response": []
		},
		{
			"name": "Erstellen eines Tickets am Rest Endpunkt",
			"request": {
				"method": "POST",
				"header": [],
				"body": {
					"mode": "raw",
					"raw": "{\n\t\t\"username\":\"FabiTet\",\n\t\t\"company\":\"Audi\",\n\t\t\"complain\":\"fahahh\" \n}",
					"options": {
						"raw": {
							"language": "json"
						}
					}
				},
				"url": {
					"raw": "http://localhost:9090/ticket",
					"protocol": "http",
					"host": [
						"localhost"
					],
					"port": "9090",
					"path": [
						"ticket"
					]
				}
			},
			"response": []
		}
	]
}